{
  "name": "Pomodorio",
  "version": "0.1.0",
  "title": "Pomodorio",
  "author": "Raimo Radczewski",
  "contact": "factorio@r33m0.de",
  "homepage": "",
  "factorio_version": "0.17",
  "dependencies": ["base >= 0.17"],
  "description": "This mod adds a pomodoro timer to the game that pauses it after e.g. 25 minutes"
}
